id;num_identifiant;date_naissance;lieu_naissance;sexe;ine;telephone;user_id
1;EXE Inves;2020-07-13;global synthesize;Masculin;HTTP;860-195-9411;1
2;Integrati;2020-07-13;Incredible;Masculin;Incredible hard drive;(671) 903-7509 x79418;1
3;Health sy;2020-07-13;Intranet Central;Masculin;Pines;016.883.9543 x0362;2
4;back-end;2020-07-13;Sleek Delaware;Masculin;Lock 24/365;1-527-940-7121 x787;1
5;firewall;2020-07-13;Upgradable Kuwaiti Dinar matrix;Feminin;Keyboard Junction;828.840.7067 x6751;1
6;pixel kno;2020-07-13;multi-state;Feminin;SAS;259.837.6033;1
8;didactic ;2020-07-13;Money Market Account Borders;Feminin;Security Personal Loan Account Senior;(496) 666-5980;2
9;TCP Outdo;2020-07-13;Union;Feminin;SMS;509.628.2615;2
10;clear-thi;2020-07-12;Supervisor Checking Account;Feminin;Human hack;574-114-8162 x25697;2
