{
  "name": "AgentBiblio",
  "fields": [
    {
      "fieldName": "matricule",
      "fieldType": "String",
      "fieldValidateRules": ["required", "unique"]
    }
  ],
  "relationships": [
    {
      "relationshipName": "user",
      "otherEntityName": "user",
      "relationshipType": "one-to-one",
      "relationshipValidateRules": ["required"],
      "otherEntityField": "login",
      "ownerSide": true,
      "useJPADerivedIdentifier": false,
      "otherEntityRelationshipName": "agentBiblio"
    }
  ],
  "changelogDate": "20200713214614",
  "entityTableName": "agent_biblio",
  "dto": "no",
  "pagination": "no",
  "service": "no",
  "jpaMetamodelFiltering": false,
  "fluentMethods": true,
  "readOnly": false,
  "embedded": false,
  "clientRootFolder": "",
  "applications": "*",
  "searchEngine": "elasticsearch",
  "databaseType": "sql"
}
